{
  "version": "14.0.0",
  "vulnerabilities": [
    {
      "id": "e1cb660671e85b75d79534576a15beb38c0141eeda858e5f3b8cc3ea99eb9ea5",
      "category": "sast",
      "name": "Possible command injection",
      "message": "Possible command injection",
      "cve": "05343687f25863e119feddbdac69c6ebb72b2521df52c3f4c86d330fff2ae231",
      "severity": "Medium",
      "confidence": "Medium",
      "scanner": {
        "id": "brakeman",
        "name": "Brakeman"
      },
      "location": {
        "file": "generic.rb",
        "start_line": 4,
        "class": "Generic",
        "method": "supplied_command"
      },
      "identifiers": [
        {
          "type": "brakeman_warning_code",
          "name": "Brakeman Warning Code 14",
          "value": "14",
          "url": "https://brakemanscanner.org/docs/warning_types/command_injection/"
        }
      ],
      "tracking": {
        "type": "source",
        "items": [
          {
            "file": "generic.rb",
            "line_start": 4,
            "line_end": 4,
            "signatures": [
              {
                "algorithm": "scope_offset",
                "value": "generic.rb|Generic[0]|supplied_command[0]:1"
              }
            ]
          }
        ]
      }
    }
  ],
  "remediations": [],
  "scan": {
    "scanner": {
      "id": "brakeman",
      "name": "Brakeman",
      "url": "https://brakemanscanner.org",
      "vendor": {
        "name": "GitLab"
      },
      "version": "5.0.0"
    },
    "type": "sast",
    "start_time": "2021-02-12T17:24:19",
    "end_time": "2021-02-12T17:24:20",
    "status": "success"
  }
}
